…
All submissions to the github repo will be automatically uploaded for
grading once the due date is passed. Submit a link to your repository on
Canvas (only one submission per team) to signal to the instructors that
you are done with your submission.

``` r
library(ggplot2)
library(classdata)
head(ames, 50)
```

    ## # A tibble: 50 × 16
    ##    `Parcel ID` Address     Style Occupancy `Sale Date` `Sale Price` `Multi Sale`
    ##    <chr>       <chr>       <fct> <fct>     <date>             <dbl> <chr>       
    ##  1 0903202160  1024 RIDGE… 1 1/… Single-F… 2022-08-12        181900 <NA>        
    ##  2 0907428215  4503 TWAIN… 1 St… Condomin… 2022-08-04        127100 <NA>        
    ##  3 0909428070  2030 MCCAR… 1 St… Single-F… 2022-08-15             0 <NA>        
    ##  4 0923203160  3404 EMERA… 1 St… Townhouse 2022-08-09        245000 <NA>        
    ##  5 0520440010  4507 EVERE… <NA>  <NA>      2022-08-03        449664 <NA>        
    ##  6 0907275030  4512 HEMIN… 2 St… Single-F… 2022-08-16        368000 <NA>        
    ##  7 0535105180  511 25TH S… 1 St… Single-F… 2022-08-03             0 <NA>        
    ##  8 0907428446  4510 TWAIN… 1 St… Condomin… 2022-08-16        110000 <NA>        
    ##  9 0527301030  3409 EISEN… 1 St… Single-F… 2022-08-08        350000 <NA>        
    ## 10 0531363050  5426 KANSA… 1 St… Single-F… 2022-08-03        242000 <NA>        
    ## # ℹ 40 more rows
    ## # ℹ 9 more variables: YearBuilt <dbl>, Acres <dbl>,
    ## #   `TotalLivingArea (sf)` <dbl>, Bedrooms <dbl>,
    ## #   `FinishedBsmtArea (sf)` <dbl>, `LotArea(sf)` <dbl>, AC <chr>,
    ## #   FirePlace <chr>, Neighborhood <fct>
…
